%YAML 1.1
%TAG !u! tag:unity3d.com,2011:
--- !u!114 &11400000
MonoBehaviour:
  m_ObjectHideFlags: 0
  m_CorrespondingSourceObject: {fileID: 0}
  m_PrefabInstance: {fileID: 0}
  m_PrefabAsset: {fileID: 0}
  m_GameObject: {fileID: 0}
  m_Enabled: 1
  m_EditorHideFlags: 0
  m_Script: {fileID: 11500000, guid: c630542f978623343ba132a53ae8a1d4, type: 3}
  m_Name: SeekBehaviour
  m_EditorClassIdentifier: 
  m_context: {fileID: 0}
  overrideContext: {x: -1, y: -1, z: -1}
  DistanceScalar: 0.05
