%YAML 1.1
%TAG !u! tag:unity3d.com,2011:
--- !u!114 &11400000
MonoBehaviour:
  m_ObjectHideFlags: 0
  m_CorrespondingSourceObject: {fileID: 0}
  m_PrefabInstance: {fileID: 0}
  m_PrefabAsset: {fileID: 0}
  m_GameObject: {fileID: 0}
  m_Enabled: 1
  m_EditorHideFlags: 0
  m_Script: {fileID: 11500000, guid: 3bc293b756dc5844ebd2392786cf9432, type: 3}
  m_Name: T_PartSeek
  m_EditorClassIdentifier: 
  enterActions: []
  exitActions: []
  actions:
  - {fileID: 11400000, guid: 35b0b73c0805b13488ac6f5d73301654, type: 2}
  transitions:
  - decision: {fileID: 11400000, guid: 1cb42bc1b1800eb4baf8ad2fee5a0d6b, type: 2}
    trueState: {fileID: 11400000, guid: 665554084c98a5144b0a0286054bc7f1, type: 2}
    falseState: {fileID: 11400000, guid: 4128389e03bfbc44bb29dd614ca482cf, type: 2}
  behaviour: {fileID: 11400000, guid: 0e60c55d9315c6e4b94353b36b7e1854, type: 2}
  stateColour: {r: 0, g: 0, b: 0, a: 0}
