%YAML 1.1
%TAG !u! tag:unity3d.com,2011:
--- !u!114 &11400000
MonoBehaviour:
  m_ObjectHideFlags: 0
  m_CorrespondingSourceObject: {fileID: 0}
  m_PrefabInstance: {fileID: 0}
  m_PrefabAsset: {fileID: 0}
  m_GameObject: {fileID: 0}
  m_Enabled: 1
  m_EditorHideFlags: 0
  m_Script: {fileID: 11500000, guid: 3bc293b756dc5844ebd2392786cf9432, type: 3}
  m_Name: WanderDormantState
  m_EditorClassIdentifier: 
  actions: []
  transitions:
  - decision: {fileID: 11400000, guid: 69276e182edb2b24eb759ebbf9258e65, type: 2}
    trueState: {fileID: 11400000, guid: ca282885e3ccae4419e1e5e1b75189a5, type: 2}
    falseState: {fileID: 11400000, guid: 4128389e03bfbc44bb29dd614ca482cf, type: 2}
  behaviour: {fileID: 11400000, guid: a1e8a00c6d722ee4f93d1537d35ad60f, type: 2}
  stateColour: {r: 0, g: 0, b: 0, a: 0}
