%YAML 1.1
%TAG !u! tag:unity3d.com,2011:
--- !u!114 &11400000
MonoBehaviour:
  m_ObjectHideFlags: 0
  m_CorrespondingSourceObject: {fileID: 0}
  m_PrefabInstance: {fileID: 0}
  m_PrefabAsset: {fileID: 0}
  m_GameObject: {fileID: 0}
  m_Enabled: 1
  m_EditorHideFlags: 0
  m_Script: {fileID: 11500000, guid: 3bc293b756dc5844ebd2392786cf9432, type: 3}
  m_Name: WanderState
  m_EditorClassIdentifier: 
  actions:
  - {fileID: 11400000, guid: 35b0b73c0805b13488ac6f5d73301654, type: 2}
  transitions:
  - decision: {fileID: 11400000, guid: c9f833083171546498c00b6ae4da76df, type: 2}
    trueState: {fileID: 11400000, guid: ddbfe4175ea30e94e8b520c0034b5c7b, type: 2}
    falseState: {fileID: 11400000, guid: 4128389e03bfbc44bb29dd614ca482cf, type: 2}
  behaviour: {fileID: 11400000, guid: 13e340d1435cd324bad09fb1320d2d78, type: 2}
  stateColour: {r: 0.2527946, g: 0.754717, b: 0.08187969, a: 0}
